{
  "page": 1,
  "total_results": 3810,
  "total_pages": 191,
  "results": [
    {
      "popularity": 47.572,
      "vote_count": 13899,
      "video": false,
      "poster_path": "/hbhFnRzzg6ZDmm8YAmxBnQpQIPh.jpg",
      "id": 278,
      "adult": false,
      "backdrop_path": "/x7O7oJO7BeXWvqXpLa5YoJd8ZD5.jpg",
      "original_language": "en",
      "original_title": "The Shawshank Redemption",
      "genre_ids": [80, 18],
      "title": "The Shawshank Redemption",
      "vote_average": 8.7,
      "overview": "Framed in the 1940s for the double murder of his wife and her lover, upstanding banker Andy Dufresne begins a new life at the Shawshank prison, where he puts his accounting skills to work for an amoral warden. During his long stretch in prison, Dufresne comes to be admired by the other inmates -- including an older prisoner named Red -- for his integrity and unquenchable sense of hope.",
      "release_date": "1994-09-23"
    },
    {
      "popularity": 30.437,
      "vote_count": 16212,
      "video": false,
      "poster_path": "/uvMjNLot0dG7CX4HZPme2WDkMmE.jpg",
      "id": 680,
      "adult": false,
      "backdrop_path": "/4cDFJr4HnXN5AdPw4AKrmLlMWdO.jpg",
      "original_language": "en",
      "original_title": "Pulp Fiction",
      "genre_ids": [80, 53],
      "title": "Pulp Fiction",
      "vote_average": 8.4,
      "overview": "A burger-loving hit man, his philosophical partner, a drug-addled gangster's moll and a washed-up boxer converge in this sprawling, comedic crime caper. Their adventures unfurl in three stories that ingeniously trip back and forth in time.",
      "release_date": "1994-10-14"
    },
    {
      "popularity": 30.008,
      "vote_count": 10939,
      "video": false,
      "poster_path": "/uvMjNLot0dG7CX4HZPme2WDkMmE.jpg",
      "id": 8587,
      "adult": false,
      "backdrop_path": "/kZ9CKeZeKMUtrjZ7RuArjVMTDF4.jpg",
      "original_language": "en",
      "original_title": "The Lion King",
      "genre_ids": [16, 18, 10751],
      "title": "The Lion King",
      "vote_average": 8.2,
      "overview": "A young lion cub named Simba can't wait to be king. But his uncle craves the title for himself and will stop at nothing to get it.",
      "release_date": "1994-06-23"
    },
    {
      "popularity": 34.399,
      "id": 101,
      "video": false,
      "vote_count": 8176,
      "vote_average": 8.3,
      "title": "Léon: The Professional",
      "release_date": "1994-11-18",
      "original_language": "fr",
      "original_title": "Léon",
      "genre_ids": [53, 80, 18],
      "backdrop_path": "/dXQ7HILRK1Tg33RT64JwbQI7Osh.jpg",
      "adult": false,
      "overview": "Léon, the top hit man in New York, has earned a rep as an effective \"cleaner\". But when his next-door neighbors are wiped out by a loose-cannon DEA agent, he becomes the unwilling custodian of 12-year-old Mathilda. Before long, Mathilda's thoughts turn to revenge, and she considers following in Léon's footsteps.",
      "poster_path": "/uvMjNLot0dG7CX4HZPme2WDkMmE.jpg",
      "isAvailable": true
    },
    {
      "popularity": 31.962,
      "vote_count": 15752,
      "video": false,
      "poster_path": "/uvMjNLot0dG7CX4HZPme2WDkMmE.jpg",
      "id": 13,
      "adult": false,
      "backdrop_path": "/wMgbnUVS9wbRGAdki8fqxKU1O0N.jpg",
      "original_language": "en",
      "original_title": "Forrest Gump",
      "genre_ids": [35, 18, 10749],
      "title": "Forrest Gump",
      "vote_average": 8.4,
      "overview": "A man with a low IQ has accomplished great things in his life and been present during significant historic events—in each case, far exceeding what anyone imagined he could do. But despite all he has achieved, his one true love eludes him.",
      "release_date": "1994-07-06"
    },
    {
      "popularity": 24.394,
      "vote_count": 5628,
      "video": false,
      "poster_path": "/uvMjNLot0dG7CX4HZPme2WDkMmE.jpg",
      "id": 854,
      "adult": false,
      "backdrop_path": "/oYVf9gqxZduttG6HW2Qo4ZUxLWW.jpg",
      "original_language": "en",
      "original_title": "The Mask",
      "genre_ids": [35, 80, 14, 10749],
      "title": "The Mask",
      "vote_average": 6.8,
      "overview": "When timid bank clerk Stanley Ipkiss discovers a magical mask containing the spirit of the Norse god Loki, his entire life changes. While wearing the mask, Ipkiss becomes a supernatural playboy exuding charm and confidence which allows him to catch the eye of local nightclub singer Tina Carlyle. Unfortunately, under the mask's influence, Ipkiss also robs a bank, which angers junior crime lord Dorian Tyrell, whose goons get blamed for the heist.",
      "release_date": "1994-07-29"
    },
    {
      "popularity": 26.233,
      "vote_count": 4409,
      "video": false,
      "poster_path": "/uvMjNLot0dG7CX4HZPme2WDkMmE.jpg",
      "id": 408,
      "adult": false,
      "backdrop_path": "/c66otZnSdri67kR7ps92kRX849o.jpg",
      "original_language": "en",
      "original_title": "Snow White and the Seven Dwarfs",
      "genre_ids": [16, 14, 10751],
      "title": "Snow White and the Seven Dwarfs",
      "vote_average": 7,
      "overview": "A beautiful girl, Snow White, takes refuge in the forest in the house of seven dwarfs to hide from her stepmother, the wicked Queen. The Queen is jealous because she wants to be known as \"the fairest in the land,\" and Snow White's beauty surpasses her own.",
      "release_date": "1937-12-21"
    },
    {
      "popularity": 25.24,
      "vote_count": 8547,
      "video": false,
      "poster_path": "/uvMjNLot0dG7CX4HZPme2WDkMmE.jpg",
      "id": 424,
      "adult": false,
      "backdrop_path": "/cTNYRUTXkBgPH3wP3kmPUB5U6dA.jpg",
      "original_language": "en",
      "original_title": "Schindler's List",
      "genre_ids": [18, 36, 10752],
      "title": "Schindler's List",
      "vote_average": 8.6,
      "overview": "The true story of how businessman Oskar Schindler saved over a thousand Jewish lives from the Nazis while they worked as slaves in his factory during World War II.",
      "release_date": "1993-12-15"
    },
    {
      "popularity": 20.34,
      "vote_count": 7817,
      "video": false,
      "poster_path": "/uvMjNLot0dG7CX4HZPme2WDkMmE.jpg",
      "id": 500,
      "adult": false,
      "backdrop_path": "/fupyzBwFAn1PoeCXhp54bYVM2ER.jpg",
      "original_language": "en",
      "original_title": "Reservoir Dogs",
      "genre_ids": [80, 53],
      "title": "Reservoir Dogs",
      "vote_average": 8.2,
      "overview": "A botched robbery indicates a police informant, and the pressure mounts in the aftermath at a warehouse. Crime begets violence as the survivors -- veteran Mr. White, newcomer Mr. Orange, psychopathic parolee Mr. Blonde, bickering weasel Mr. Pink and Nice Guy Eddie -- unravel.",
      "release_date": "1992-10-23"
    },
    {
      "popularity": 11.398,
      "vote_count": 1295,
      "video": false,
      "poster_path": "/uvMjNLot0dG7CX4HZPme2WDkMmE.jpg",
      "id": 888,
      "adult": false,
      "backdrop_path": "/vbWvWqZJiEiffj8xag0owDExRVg.jpg",
      "original_language": "en",
      "original_title": "The Flintstones",
      "genre_ids": [35, 14, 10751],
      "title": "The Flintstones",
      "vote_average": 5.2,
      "overview": "Modern Stone Age family the Flintstones hit the big screen in this live-action version of the classic cartoon. Fred helps Barney adopt a child. Barney sees an opportunity to repay him when Slate Mining tests its employees to find a new executive. But no good deed goes unpunished.",
      "release_date": "1994-05-26"
    },
    {
      "popularity": 13.378,
      "id": 9739,
      "video": false,
      "vote_count": 1801,
      "vote_average": 6.5,
      "title": "Demolition Man",
      "release_date": "1993-10-08",
      "original_language": "en",
      "original_title": "Demolition Man",
      "genre_ids": [80, 28, 878],
      "backdrop_path": "/2p5rA1NRoyyAFfzdHl1Ab1RN3qr.jpg",
      "adult": false,
      "overview": "Simon Phoenix, a violent criminal cryogenically frozen in 1996, escapes during a parole hearing in 2032 in the utopia of San Angeles. Police are incapable of dealing with his violent ways and turn to his captor, who had also been cryogenically frozen after being wrongfully accused of killing 30 innocent people while apprehending Phoenix.",
      "poster_path": "/uvMjNLot0dG7CX4HZPme2WDkMmE.jpg"
    },
    {
      "popularity": 13.039,
      "vote_count": 2070,
      "video": false,
      "poster_path": "/uvMjNLot0dG7CX4HZPme2WDkMmE.jpg",
      "id": 36955,
      "adult": false,
      "backdrop_path": "/o2agns0LEqyEUCByMT8ViIOio7r.jpg",
      "original_language": "en",
      "original_title": "True Lies",
      "genre_ids": [28, 53],
      "title": "True Lies",
      "vote_average": 6.9,
      "overview": "Harry Tasker is a secret agent for the United States Government. For years, he has kept his job from his wife, but is forced to reveal his identity and try to stop nuclear terrorists when he and his wife are kidnapped by them.",
      "release_date": "1994-07-15"
    },
    {
      "popularity": 16.688,
      "vote_count": 2909,
      "video": false,
      "poster_path": "/uvMjNLot0dG7CX4HZPme2WDkMmE.jpg",
      "id": 10112,
      "adult": false,
      "backdrop_path": "/fojdVtSsZa7fXyJQ6w1Exw7GWum.jpg",
      "original_language": "en",
      "original_title": "The Aristocats",
      "genre_ids": [12, 16, 35, 10751],
      "title": "The Aristocats",
      "vote_average": 7.3,
      "overview": "When Madame Adelaide Bonfamille leaves her fortune to Duchess and her children—Bonfamille’s beloved family of cats—the butler plots to steal the money and kidnaps the legatees, leaving them out on a country road. All seems lost until the wily Thomas O’Malley Cat and his jazz-playing alley cats come to the aristocats’ rescue.",
      "release_date": "1970-12-24"
    },
    {
      "popularity": 20.126,
      "vote_count": 4866,
      "video": false,
      "poster_path": "/uvMjNLot0dG7CX4HZPme2WDkMmE.jpg",
      "id": 620,
      "adult": false,
      "backdrop_path": "/qmDy6Rdom8d8UFj9GeAAtVIjTRT.jpg",
      "original_language": "en",
      "original_title": "Ghostbusters",
      "genre_ids": [35, 14],
      "title": "Ghostbusters",
      "vote_average": 7.4,
      "overview": "After losing their academic posts at a prestigious university, a team of parapsychologists goes into business as proton-pack-toting \"ghostbusters\" who exterminate ghouls, hobgoblins and supernatural pests of all stripes. An ad campaign pays off when a knockout cellist hires the squad to purge her swanky digs of demons that appear to be living in her refrigerator.",
      "release_date": "1984-06-08"
    },
    {
      "popularity": 15.25,
      "id": 2758,
      "video": false,
      "vote_count": 1312,
      "vote_average": 6.7,
      "title": "Addams Family Values",
      "release_date": "1993-11-19",
      "original_language": "en",
      "original_title": "Addams Family Values",
      "genre_ids": [35, 10751, 14],
      "backdrop_path": "/i84FfYcljpH9FOO26PdvBWzLGRl.jpg",
      "adult": false,
      "overview": "Siblings Wednesday and Pugsley Addams will stop at nothing to get rid of Pubert, the new baby boy adored by parents Gomez and Morticia. Things go from bad to worse when the new \"black widow\" nanny, Debbie Jellinsky, launches her plan to add Fester to her collection of dead husbands.",
      "poster_path": "/uvMjNLot0dG7CX4HZPme2WDkMmE.jpg"
    },
    {
      "popularity": 18.017,
      "vote_count": 3184,
      "video": false,
      "poster_path": "/uvMjNLot0dG7CX4HZPme2WDkMmE.jpg",
      "id": 3170,
      "adult": false,
      "backdrop_path": "/zM2Rdsh4kiTEXPkkO9lWBzZpwAH.jpg",
      "original_language": "en",
      "original_title": "Bambi",
      "genre_ids": [16, 18, 10751],
      "title": "Bambi",
      "vote_average": 6.9,
      "overview": "Bambi's tale unfolds from season to season as the young prince of the forest learns about life, love, and friends.",
      "release_date": "1942-08-21"
    },
    {
      "popularity": 13.155,
      "vote_count": 461,
      "video": false,
      "poster_path": "/uvMjNLot0dG7CX4HZPme2WDkMmE.jpg",
      "id": 10438,
      "adult": false,
      "backdrop_path": "/1MaJH9m8TfmwLgS98kcjU4faiMg.jpg",
      "original_language": "en",
      "original_title": "Beethoven's 2nd",
      "genre_ids": [35, 10751],
      "title": "Beethoven's 2nd",
      "vote_average": 5.2,
      "overview": "Beethoven is back -- and this time, he has a whole brood with him now that he's met his canine match, Missy, and fathered a family. The only problem is that Missy's owner, Regina, wants to sell the puppies and tear the clan apart. It's up to Beethoven and the Newton kids to save the day and keep everyone together.",
      "release_date": "1993-12-16"
    },
    {
      "popularity": 13.779,
      "id": 44251,
      "video": false,
      "vote_count": 281,
      "vote_average": 6.5,
      "title": "Dragon Ball Z: Broly – Second Coming",
      "release_date": "1994-03-12",
      "original_language": "ja",
      "original_title": "ドラゴンボールＺ 危険なふたり！超戦士はねむれない",
      "genre_ids": [28, 16, 878],
      "backdrop_path": "/d0A7xd5Qnm6CCH25HXKHmcBDmmm.jpg",
      "adult": false,
      "overview": "A Saiyan Space pod crash-lands on Earth out of which a wounded Saiyan crawls: Broly, the Legendary Super Saiyan. The wounded Broly shouts out in frustration and turns into normal form. The place soon freezes, trapping him in it and he falls into a coma.",
      "poster_path": "/uvMjNLot0dG7CX4HZPme2WDkMmE.jpg"
    },
    {
      "popularity": 14.604,
      "vote_count": 3268,
      "video": false,
      "poster_path": "/uvMjNLot0dG7CX4HZPme2WDkMmE.jpg",
      "id": 1637,
      "adult": false,
      "backdrop_path": "/pGVpDc6MgLRtOYdxsA5fhj1SZki.jpg",
      "original_language": "en",
      "original_title": "Speed",
      "genre_ids": [28, 12, 80],
      "title": "Speed",
      "vote_average": 6.9,
      "overview": "Los Angeles SWAT cop Jack Traven is up against bomb expert Howard Payne, who's after major ransom money. First it's a rigged elevator in a very tall building. Then it's a rigged bus--if it slows, it will blow, bad enough any day, but a nightmare in LA traffic. And that's still not the end.",
      "release_date": "1994-06-09"
    },
    {
      "popularity": 21.341,
      "vote_count": 4964,
      "video": false,
      "poster_path": "/uvMjNLot0dG7CX4HZPme2WDkMmE.jpg",
      "id": 9479,
      "adult": false,
      "backdrop_path": "/16lk65YfrDFIr6evkWRjSeOOSws.jpg",
      "original_language": "en",
      "original_title": "The Nightmare Before Christmas",
      "genre_ids": [16, 14, 10751],
      "title": "The Nightmare Before Christmas",
      "vote_average": 7.8,
      "overview": "Tired of scaring humans every October 31 with the same old bag of tricks, Jack Skellington, the spindly king of Halloween Town, kidnaps Santa Claus and plans to deliver shrunken heads and other ghoulish gifts to children on Christmas morning. But as Christmas approaches, Jack's rag-doll girlfriend, Sally, tries to foil his misguided plans.",
      "release_date": "1993-10-09"
    }
  ]
}
